<?xml version="1.0" encoding="UTF-8" standalone="no"?>
<!-- Created with Inkscape (http://www.inkscape.org/) -->

<svg
   width="40"
   height="40"
   viewBox="0 0 10.583334 10.583334"
   version="1.1"
   id="svg5"
   inkscape:version="1.1.2 (0a00cf5339, 2022-02-04, custom)"
   sodipodi:docname="button-pressed.svg"
   xmlns:inkscape="http://www.inkscape.org/namespaces/inkscape"
   xmlns:sodipodi="http://sodipodi.sourceforge.net/DTD/sodipodi-0.dtd"
   xmlns="http://www.w3.org/2000/svg"
   xmlns:svg="http://www.w3.org/2000/svg">
  <sodipodi:namedview
     id="namedview7"
     pagecolor="#ffffff"
     bordercolor="#666666"
     borderopacity="1.0"
     inkscape:pageshadow="2"
     inkscape:pageopacity="0.0"
     inkscape:pagecheckerboard="0"
     inkscape:document-units="mm"
     showgrid="false"
     inkscape:zoom="11.732391"
     inkscape:cx="13.381757"
     inkscape:cy="20.541423"
     inkscape:window-width="1794"
     inkscape:window-height="967"
     inkscape:window-x="86"
     inkscape:window-y="36"
     inkscape:window-maximized="0"
     inkscape:current-layer="layer1"
     width="211mm"
     units="px" />
  <defs
     id="defs2" />
  <g
     inkscape:label="Layer 1"
     inkscape:groupmode="layer"
     id="layer1">
    <path
       id="path846-3"
       style="fill:#979797;fill-opacity:1;stroke:none;stroke-width:0.0875205"
       d="M 5.2216695,0.00495375 A 5.285611,5.285611 0 0 0 3.6667306,0.25897716 5.285611,5.285611 0 0 0 3.2232208,0.43202522 0.61595069,0.61595069 0 0 0 3.1967728,0.43944499 0.61595069,0.61595069 0 0 0 2.7992834,1.2145637 0.61595069,0.61595069 0 0 0 3.5743702,1.6120532 0.61595069,0.61595069 0 0 0 3.6351012,1.5888673 L 5.2868783,5.2901624 1.4881982,3.8736397 A 0.61595069,0.61595069 0 0 0 1.4958096,3.4740395 0.61595069,0.61595069 0 0 0 0.72069073,3.07655 0.61595069,0.61595069 0 0 0 0.30573996,3.5423184 5.285611,5.285611 0 0 0 0.25569004,6.9103051 5.285611,5.285611 0 0 0 6.9070227,10.321314 5.285611,5.285611 0 0 0 10.318064,3.6699859 5.285611,5.285611 0 0 0 5.2216695,0.00495375 Z M 2.9425572,0.55320042 a 5.285611,5.285611 0 0 0 -0.010426,0.004957 5.2863636,5.2863608 72.150321 0 1 0.010426,-0.004957 z M 2.60161,0.73811342 A 5.285611,5.285611 0 0 0 2.5675827,0.75867719 5.2863636,5.2863608 72.150321 0 1 2.60161,0.73811342 Z M 2.259831,0.95740588 a 5.285611,5.285611 0 0 0 -0.00554,0.003712 5.2863636,5.2863608 72.150321 0 1 0.00554,-0.003712 z M 1.9536148,1.1888508 a 5.285611,5.285611 0 0 0 -0.031022,0.025744 5.2863636,5.2863608 72.150321 0 1 0.031022,-0.025744 z M 1.3803269,1.7306377 a 5.285611,5.285611 0 0 0 -0.027983,0.031342 5.2863636,5.2863608 72.150321 0 1 0.027983,-0.031342 z M 0.89399473,2.3518648 a 5.285611,5.285611 0 0 0 -0.0238578,0.036427 5.2863636,5.2863608 72.150321 0 1 0.0238578,-0.036427 z M 0.50558795,3.0385247 a 5.285611,5.285611 0 0 0 -0.0187088,0.040616 5.2863636,5.2863608 72.150321 0 1 0.0187088,-0.040616 z" />
    <circle
       style="fill:#272727;fill-opacity:1;stroke:none;stroke-width:0.0671469"
       id="path846"
       cx="3.4108415"
       cy="6.656045"
       r="4.0551972"
       transform="rotate(-17.849679)" />
    <path
       id="path2052-3"
       style="fill:#ffffff;fill-opacity:1;stroke:none;stroke-width:0.0875205"
       inkscape:transform-center-x="-1.6894869"
       inkscape:transform-center-y="1.6463833"
       d="M 8.031697,6.6389859 C 8.009259,6.6846119 7.98573,6.7295949 7.961135,6.773897 7.936538,6.818201 7.910881,6.861826 7.884192,6.904739 7.857504,6.947651 7.829778,6.989852 7.801056,7.0313064 7.772337,7.0727604 7.742608,7.1134674 7.711922,7.1533951 7.68123,7.1933221 7.649576,7.2324681 7.616981,7.2708003 7.584385,7.3091323 7.550855,7.3466493 7.5164231,7.3833176 c -0.034434,0.036669 -0.06977,0.072488 -0.1059794,0.1074256 -0.036209,0.034935 -0.073289,0.068987 -0.111211,0.1021276 -0.03792,0.033134 -0.076681,0.065357 -0.1162491,0.096627 -0.039569,0.031267 -0.079945,0.061584 -0.1210959,0.090921 -0.041152,0.029332 -0.083081,0.057679 -0.1257513,0.085009 -0.042671,0.027329 -0.086086,0.053638 -0.1302132,0.078894 C 6.5660726,8.076195 6.5906217,8.25837 6.6443951,8.3328431 6.7171658,8.4511567 6.8822298,8.524631 7.0778008,8.4193262 7.1298215,8.3895538 7.181003,8.358541 7.2313075,8.3263238 7.2816124,8.2941076 7.3310397,8.26069 7.3795533,8.2261112 c 0.048513,-0.034583 0.096112,-0.070316 0.1427588,-0.1071813 0.046647,-0.036861 0.092341,-0.074845 0.1370452,-0.1139074 0.044704,-0.039065 0.088419,-0.079208 0.1311049,-0.1203938 0.042686,-0.041185 0.084345,-0.083412 0.1249381,-0.1266383 0.040596,-0.043225 0.080121,-0.087454 0.1185467,-0.1326413 0.038423,-0.04519 0.075745,-0.091336 0.1119258,-0.1384032 0.036182,-0.047069 0.07122,-0.095057 0.105081,-0.1439255 0.033859,-0.048869 0.066544,-0.098616 0.098007,-0.149205 C 8.3804293,7.1432268 8.410673,7.091799 8.4396702,7.0395716 8.4686664,6.9873434 8.496407,6.9343167 8.5228551,6.8805297 8.6297679,6.6271446 8.5524243,6.5170532 8.4093185,6.4533954 8.2944437,6.4076591 8.1379162,6.4374252 8.0316939,6.6389859 Z"
       sodipodi:nodetypes="cssssssssssscccsssssssssssccc" />
    <path
       id="path2052-3-6"
       style="fill:#d7d7d7;fill-opacity:1;stroke:none;stroke-width:0.0875205"
       inkscape:transform-center-x="2.3373202"
       inkscape:transform-center-y="-2.3625728"
       d="m 2.6235027,4.0553809 c 0.024431,-0.044589 0.049928,-0.088486 0.076459,-0.1316587 0.02653,-0.043172 0.054093,-0.08562 0.082656,-0.12731 0.028562,-0.04169 0.058124,-0.082623 0.088651,-0.1227663 0.030527,-0.040143 0.062022,-0.079497 0.094447,-0.1180266 0.032426,-0.03853 0.065784,-0.076239 0.1000411,-0.1130908 0.034258,-0.036852 0.069413,-0.07285 0.1054348,-0.1079595 0.036022,-0.035109 0.072909,-0.069331 0.1106275,-0.1026325 0.03772,-0.033301 0.076271,-0.065681 0.1156194,-0.097109 0.039349,-0.031427 0.079498,-0.061902 0.1204099,-0.091391 0.040913,-0.029488 0.08259,-0.05799 0.1249992,-0.085474 0.042409,-0.027484 0.085549,-0.05395 0.1293876,-0.079364 0.043838,-0.025414 0.088374,-0.049777 0.1335753,-0.073058 C 4.1512622,2.6844051 4.1347949,2.5013224 4.0843683,2.4245436 4.0169026,2.3031277 3.8552495,2.2224236 3.655212,2.3189745 c -0.053287,0.027443 -0.1057893,0.056163 -0.1574696,0.086123 -0.051681,0.029959 -0.1025381,0.061157 -0.1525339,0.093557 -0.049994,0.0324 -0.099128,0.065999 -0.1473593,0.1007616 -0.048231,0.034762 -0.095561,0.070687 -0.1419497,0.1077346 -0.046389,0.037048 -0.091836,0.07522 -0.1363018,0.1144763 -0.044466,0.039257 -0.087952,0.079599 -0.1304178,0.1209878 -0.042465,0.041389 -0.083911,0.083825 -0.1242966,0.1272683 -0.040386,0.043445 -0.079712,0.087896 -0.1179386,0.1333178 -0.038226,0.045422 -0.075355,0.091813 -0.1113437,0.1391366 -0.035989,0.047321 -0.070839,0.095577 -0.1045122,0.1447239 -0.033671,0.049147 -0.066166,0.099187 -0.097443,0.1500805 -0.031277,0.050893 -0.061335,0.1026425 -0.090138,0.1552068 -0.1180177,0.2484075 -0.04562,0.3618126 0.094532,0.431738 0.1127392,0.050772 0.2704301,0.027959 0.3854629,-0.1687058 z"
       sodipodi:nodetypes="cssssssssssscccsssssssssssccc" />
    <path
       id="path2052-3-5"
       style="fill:#f5f5f5;fill-opacity:1;stroke:none;stroke-width:0.0695142"
       inkscape:transform-center-x="-1.3418903"
       inkscape:transform-center-y="1.3076526"
       d="m 7.3240489,6.308507 c -0.017819,0.036239 -0.036508,0.071967 -0.056044,0.1071548 -0.019534,0.035189 -0.039914,0.069838 -0.061113,0.1039219 -0.021199,0.034084 -0.043218,0.067602 -0.066031,0.1005277 -0.022814,0.032925 -0.04642,0.065258 -0.070796,0.096971 -0.024376,0.031712 -0.049521,0.062805 -0.075409,0.09325 -0.025888,0.030445 -0.052519,0.060245 -0.079868,0.089367 -0.027348,0.029125 -0.055416,0.057575 -0.084176,0.085324 -0.028759,0.027749 -0.058211,0.054796 -0.08833,0.081116 -0.030118,0.02632 -0.060904,0.05191 -0.092333,0.076747 -0.031427,0.024836 -0.063496,0.048916 -0.096181,0.072214 -0.032686,0.023298 -0.065986,0.045813 -0.09988,0.06752 -0.033892,0.021706 -0.068375,0.042602 -0.103423,0.062662 -0.1905045,0.104742 -0.1710061,0.2494358 -0.1282963,0.308587 0.057799,0.093971 0.1889028,0.152329 0.3442371,0.068687 0.041318,-0.023648 0.081969,-0.048282 0.1219234,-0.073872 0.039955,-0.02559 0.079215,-0.052128 0.1177462,-0.079594 0.038532,-0.027465 0.076338,-0.055856 0.1133875,-0.085129 0.037049,-0.029279 0.073342,-0.059445 0.1088498,-0.090472 0.035506,-0.031028 0.070228,-0.062912 0.1041311,-0.095624 0.033904,-0.032713 0.066992,-0.066249 0.099234,-0.1005842 0.032242,-0.034333 0.063637,-0.069461 0.094157,-0.1053515 0.030519,-0.035891 0.060161,-0.072544 0.088898,-0.1099286 0.028736,-0.037385 0.056567,-0.075499 0.083462,-0.1143145 0.026897,-0.038815 0.052853,-0.078327 0.077843,-0.1185074 0.024993,-0.040179 0.049013,-0.081027 0.072049,-0.1225095 0.023028,-0.041483 0.045062,-0.0836 0.066067,-0.1263211 0.084918,-0.2012529 0.023483,-0.2886944 -0.090177,-0.339255 -0.09124,-0.036326 -0.2155638,-0.012684 -0.2999314,0.147407 z"
       sodipodi:nodetypes="cssssssssssscccsssssssssssccc" />
  </g>
</svg>
